\relax 
\bibstyle{biblatex}
\bibdata{Polar_Diagram-blx,InterimReferences}
\citation{biblatex-control}
\abx@aux@refcontext{nyt/global//global/global}
\@writefile{lof}{\defcounter {refsection}{0}\relax }\@writefile{lof}{\contentsline {figure}{\numberline {1}{\ignorespaces The accretion region on the white dwarf viewed from an inclination i = 58.3$\ensuremath  {^\circ }$ as a function of orbital phase. Phase increases clockwise from phase 0 at top left. The accretion region is shown in red, not to scale and neglecting any height of an accretion column. Blue line: the magnetic field axis. Green arrow: points in the direction of the donor star.\relax }}{1}}
\providecommand*\caption@xref[2]{\@setref\relax\@undefined{#1}}
\newlabel{WDGeometry}{{1}{1}}
