\relax 
\bibstyle{biblatex}
\bibdata{V358AqrReport-blx,InterimReferences}
\citation{biblatex-control}
\abx@aux@refcontext{nyt/global//global/global}
\citation{book}
\abx@aux@cite{book}
\abx@aux@segm{0}{0}{book}
\citation{book}
\abx@aux@segm{0}{0}{book}
\citation{PolarDiagram}
\abx@aux@cite{PolarDiagram}
\abx@aux@segm{0}{0}{PolarDiagram}
\citation{PolarDiagram}
\abx@aux@segm{0}{0}{PolarDiagram}
\citation{MCVs1}
\abx@aux@cite{MCVs1}
\abx@aux@segm{0}{0}{MCVs1}
\citation{MCVs2}
\abx@aux@cite{MCVs2}
\abx@aux@segm{0}{0}{MCVs2}
\citation{GiantFlares}
\abx@aux@cite{GiantFlares}
\abx@aux@segm{0}{0}{GiantFlares}
\@writefile{toc}{\boolfalse {citerequest}\boolfalse {citetracker}\boolfalse {pagetracker}\boolfalse {backtracker}\relax }
\@writefile{lof}{\boolfalse {citerequest}\boolfalse {citetracker}\boolfalse {pagetracker}\boolfalse {backtracker}\relax }
\@writefile{lot}{\boolfalse {citerequest}\boolfalse {citetracker}\boolfalse {pagetracker}\boolfalse {backtracker}\relax }
\@writefile{toc}{\defcounter {refsection}{0}\relax }\@writefile{toc}{\contentsline {section}{\numberline {1}Introduction}{1}}
\abx@aux@page{1}{1}
\abx@aux@page{2}{1}
\abx@aux@page{5}{1}
\abx@aux@page{6}{1}
\citation{ROSAT}
\abx@aux@cite{ROSAT}
\abx@aux@segm{0}{0}{ROSAT}
\citation{GiantFlares}
\abx@aux@segm{0}{0}{GiantFlares}
\citation{PolarPeriod}
\abx@aux@cite{PolarPeriod}
\abx@aux@segm{0}{0}{PolarPeriod}
\citation{GiantFlares}
\abx@aux@segm{0}{0}{GiantFlares}
\@writefile{lof}{\defcounter {refsection}{0}\relax }\@writefile{lof}{\contentsline {figure}{\numberline {1}{\ignorespaces An illustration of a polar \autocite {PolarDiagram}. Plasma escapes by Roche lobe overflow from the secondary star and flows towards the highly magnetized white dwarf. Ionised material is funnelled directly along magnetic field lines onto the surface of the white dwarf producing an accretion column near the magnetic pole. The sudden deceleration of the plasma as it impacts the surface forms a hydrodynamic shock and releases energy in the form of X-rays. The falling plasma also cools by the production of cyclotron emission in the optical and NIR as a result of the ionised material spiralling around magnetic field lines.\relax }}{2}}
\providecommand*\caption@xref[2]{\@setref\relax\@undefined{#1}}
\newlabel{PolarDiagram}{{1}{2}}
\abx@aux@page{7}{2}
\@writefile{toc}{\defcounter {refsection}{0}\relax }\@writefile{toc}{\contentsline {section}{\numberline {2}Previous Observations of V358 Aquarii}{2}}
\abx@aux@page{8}{2}
\abx@aux@page{9}{2}
\abx@aux@page{10}{2}
\citation{TDB}
\abx@aux@cite{TDB}
\abx@aux@segm{0}{0}{TDB}
\citation{GiantFlares}
\abx@aux@segm{0}{0}{GiantFlares}
\citation{GiantFlares}
\abx@aux@segm{0}{0}{GiantFlares}
\citation{GiantFlares}
\abx@aux@segm{0}{0}{GiantFlares}
\citation{GiantFlares}
\abx@aux@segm{0}{0}{GiantFlares}
\citation{GiantFlares}
\abx@aux@segm{0}{0}{GiantFlares}
\citation{GiantFlares}
\abx@aux@segm{0}{0}{GiantFlares}
\citation{GiantFlares}
\abx@aux@segm{0}{0}{GiantFlares}
\@writefile{lof}{\defcounter {refsection}{0}\relax }\@writefile{lof}{\contentsline {figure}{\numberline {2}{\ignorespaces The giant optical flares observed in 1995 (left) and 2010 (right) from \cite {GiantFlares}. The timescales for decay are of the order 20 minutes.\relax }}{3}}
\newlabel{GiantFlares}{{2}{3}}
\abx@aux@page{11}{3}
\newlabel{OgEphemeris}{{1}{3}}
\abx@aux@page{12}{3}
\abx@aux@page{13}{3}
\abx@aux@page{16}{3}
\abx@aux@page{17}{3}
\@writefile{toc}{\defcounter {refsection}{0}\relax }\@writefile{toc}{\contentsline {section}{\numberline {3}Data Processing}{3}}
\newlabel{DataProcessing}{{3}{3}}
\@writefile{toc}{\defcounter {refsection}{0}\relax }\@writefile{toc}{\contentsline {subsection}{\numberline {3.1}K2 Observations}{3}}
\newlabel{IntermediateLightCurves}{{3a}{4}}
\newlabel{sub@IntermediateLightCurves}{{a}{4}}
\newlabel{HighLightCurves}{{3b}{4}}
\newlabel{sub@HighLightCurves}{{b}{4}}
\@writefile{lof}{\defcounter {refsection}{0}\relax }\@writefile{lof}{\contentsline {figure}{\numberline {3}{\ignorespaces Light curves of V358 Aqr from \cite {GiantFlares}.\relax }}{4}}
\newlabel{PreviousLightCurves}{{3}{4}}
\citation{Kepler}
\abx@aux@cite{Kepler}
\abx@aux@segm{0}{0}{Kepler}
\newlabel{KeplerBandpass}{{4a}{5}}
\newlabel{sub@KeplerBandpass}{{a}{5}}
\newlabel{UBVFilters}{{4b}{5}}
\newlabel{sub@UBVFilters}{{b}{5}}
\@writefile{lof}{\defcounter {refsection}{0}\relax }\@writefile{lof}{\contentsline {figure}{\numberline {4}{\ignorespaces The Kepler response function and the standard UBV filters for comparison.\relax }}{5}}
\newlabel{Bandpass}{{4}{5}}
\@writefile{lof}{\defcounter {refsection}{0}\relax }\@writefile{lof}{\contentsline {figure}{\numberline {5}{\ignorespaces A summary of the quality bitmask flags utilised by the K2 data to label each frame with potential sources of noise.\relax }}{6}}
\newlabel{BitmaskFlags}{{5}{6}}
\@writefile{toc}{\defcounter {refsection}{0}\relax }\@writefile{toc}{\contentsline {subsection}{\numberline {3.2}Quality Bitmask Flags}{6}}
\newlabel{QualityBitmaskFlags}{{3.2}{6}}
\abx@aux@page{20}{6}
\@writefile{toc}{\defcounter {refsection}{0}\relax }\@writefile{toc}{\contentsline {subsection}{\numberline {3.3}Choosing the Aperture}{6}}
\citation{GiantFlares}
\abx@aux@segm{0}{0}{GiantFlares}
\citation{OpticalPolarimetry}
\abx@aux@cite{OpticalPolarimetry}
\abx@aux@segm{0}{0}{OpticalPolarimetry}
\citation{GiantFlares}
\abx@aux@segm{0}{0}{GiantFlares}
\citation{CyclotronBeaming}
\abx@aux@cite{CyclotronBeaming}
\abx@aux@segm{0}{0}{CyclotronBeaming}
\@writefile{lof}{\defcounter {refsection}{0}\relax }\@writefile{lof}{\contentsline {figure}{\numberline {6}{\ignorespaces An optical image of V358 Aqr and the surrounding field from the Pan-STARRS survey cut to the same size as the K2 image stamp\footnotemark . There are no other stars in the field that could enter in the aperture and contaminate the data.\relax }}{7}}
\newlabel{Image}{{6}{7}}
\@writefile{toc}{\defcounter {refsection}{0}\relax }\@writefile{toc}{\contentsline {subsection}{\numberline {3.4}Further Data Cleaning}{7}}
\newlabel{DataCleaning}{{3.4}{7}}
\@writefile{lof}{\defcounter {refsection}{0}\relax }\@writefile{lof}{\contentsline {figure}{\numberline {7}{\ignorespaces The aperture used to produce the light curve in figure 8\hbox {} and for all subsequent analysis. The aperture is shown in red superimposed over a frame image of V358 Aqr.\relax }}{8}}
\newlabel{Aperture}{{7}{8}}
\@writefile{lof}{\defcounter {refsection}{0}\relax }\@writefile{lof}{\contentsline {figure}{\numberline {8}{\ignorespaces The K2 light curve of V358 Aqr. Useless cadences have been removed using quality bitmask flags as described in section 5\hbox {} and the aperture used is shown in figure 7\hbox {}. There are a number of large peaks which may be due to flares or just noise entering the aperture.\relax }}{8}}
\newlabel{OriginalLightCurve}{{8}{8}}
\newlabel{Flare}{{9a}{9}}
\newlabel{sub@Flare}{{a}{9}}
\newlabel{RealPeak}{{\caption@xref {RealPeak}{ on input line 199}}{9}}
\@writefile{lof}{\defcounter {refsection}{0}\relax }\@writefile{lof}{\contentsline {figure}{\numberline {9}{\ignorespaces A flare in the light curve of the polar V358 Aqr. \relax }}{9}}
\@writefile{lof}{\defcounter {refsection}{0}\relax }\@writefile{lof}{\contentsline {figure}{\numberline {10}{\ignorespaces An anomalous peak in the light curve of the polar V358 Aqr.\relax }}{9}}
\newlabel{NoisyFrame}{{10}{9}}
\@writefile{toc}{\defcounter {refsection}{0}\relax }\@writefile{toc}{\contentsline {section}{\numberline {4}The Results}{9}}
\@writefile{toc}{\defcounter {refsection}{0}\relax }\@writefile{toc}{\contentsline {subsection}{\numberline {4.1}The Light Curve}{9}}
\newlabel{LightCurve}{{4.1}{9}}
\abx@aux@page{21}{9}
\abx@aux@page{22}{9}
\citation{GiantFlares}
\abx@aux@segm{0}{0}{GiantFlares}
\citation{GiantFlares}
\abx@aux@segm{0}{0}{GiantFlares}
\citation{arc}
\abx@aux@cite{arc}
\abx@aux@segm{0}{0}{arc}
\citation{GiantFlares}
\abx@aux@segm{0}{0}{GiantFlares}
\citation{CyclotronBeaming}
\abx@aux@segm{0}{0}{CyclotronBeaming}
\citation{CyclotronBeaming}
\abx@aux@segm{0}{0}{CyclotronBeaming}
\abx@aux@page{23}{10}
\abx@aux@page{24}{10}
\abx@aux@page{25}{10}
\abx@aux@page{26}{10}
\abx@aux@page{27}{10}
\abx@aux@page{28}{10}
\abx@aux@page{29}{10}
\citation{CyclotronBeaming}
\abx@aux@segm{0}{0}{CyclotronBeaming}
\citation{CyclotronBeaming}
\abx@aux@segm{0}{0}{CyclotronBeaming}
\citation{GiantFlares}
\abx@aux@segm{0}{0}{GiantFlares}
\@writefile{lof}{\defcounter {refsection}{0}\relax }\@writefile{lof}{\contentsline {figure}{\numberline {11}{\ignorespaces V358 Aqr viewed from an inclination i = 58.3$\ensuremath  {^\circ }$. Green sphere: the donor star. Black sphere: the white dwarf. The inclination is low enough such that the white dwarf is not eclipsed by the donor star or vice versa.\relax }}{11}}
\newlabel{DonorStarGeometry}{{11}{11}}
\abx@aux@page{30}{11}
\@writefile{lof}{\defcounter {refsection}{0}\relax }\@writefile{lof}{\contentsline {figure}{\numberline {12}{\ignorespaces The accretion region on the white dwarf viewed from an inclination i = 58.3$\ensuremath  {^\circ }$ as a function of orbital phase. Phase increases clockwise from phase 0 at top left. The accretion region is shown in red, not to scale and neglecting any height of an accretion column. Blue line: the magnetic field axis. Green arrow: points in the direction of the donor star.\relax }}{12}}
\newlabel{WDGeometry}{{12}{12}}
\newlabel{ThetaGraph}{{13a}{13}}
\newlabel{sub@ThetaGraph}{{a}{13}}
\newlabel{BeamingDiagram}{{13b}{13}}
\newlabel{sub@BeamingDiagram}{{b}{13}}
\@writefile{lof}{\defcounter {refsection}{0}\relax }\@writefile{lof}{\contentsline {figure}{\numberline {13}{\ignorespaces Cyclotron beaming leads to maximum flux when the angle between the accreting magnetic field line and the line of sight, $\theta $ is as close to $90\ensuremath  {^\circ }$ as possible for the given geometry.\relax }}{13}}
\@writefile{lof}{\defcounter {refsection}{0}\relax }\@writefile{lof}{\contentsline {figure}{\numberline {14}{\ignorespaces The K2 light curve of V358 Aqr. Useless cadences have been removed using quality bitmask flags as described in section 3.2\hbox {}, the aperture used is shown in figure 7\hbox {} and noisy frames have been removed by the process described in section 3.4\hbox {}. The sections drawn in blue and red are shown in figures 15a\hbox {} and 15b\hbox {} respectively.\relax }}{13}}
\newlabel{Cleaned}{{14}{13}}
\newlabel{LightCurveSection1}{{15a}{14}}
\newlabel{sub@LightCurveSection1}{{a}{14}}
\newlabel{LightCurveSection2}{{15b}{14}}
\newlabel{sub@LightCurveSection2}{{b}{14}}
\@writefile{lof}{\defcounter {refsection}{0}\relax }\@writefile{lof}{\contentsline {figure}{\numberline {15}{\ignorespaces Sections of the cleaned light curve of V358 Aqr (figure 14\hbox {}) labelled with red and blue colours. \relax }}{14}}
\newlabel{LightCurveSections}{{15}{14}}
\citation{GiantFlares}
\abx@aux@segm{0}{0}{GiantFlares}
\citation{Kepler}
\abx@aux@segm{0}{0}{Kepler}
\citation{GiantFlares}
\abx@aux@segm{0}{0}{GiantFlares}
\citation{GiantFlares}
\abx@aux@segm{0}{0}{GiantFlares}
\@writefile{lof}{\defcounter {refsection}{0}\relax }\@writefile{lof}{\contentsline {figure}{\numberline {16}{\ignorespaces The power spectrum of the K2 light curve of V358 Aqr in period space. The highest peak corresponds to the binary period of the system of $\sim $3.49 hours. There is a secondary peak at $\sim $1.75 hours. \relax }}{15}}
\newlabel{PeriodPowerSpectrum}{{16}{15}}
\@writefile{toc}{\defcounter {refsection}{0}\relax }\@writefile{toc}{\contentsline {subsection}{\numberline {4.2}Periodogram}{15}}
\newlabel{Periodogram}{{4.2}{15}}
\abx@aux@page{33}{15}
\@writefile{toc}{\defcounter {refsection}{0}\relax }\@writefile{toc}{\contentsline {subsection}{\numberline {4.3}Orbital Ephemeris}{15}}
\newlabel{OrbitalEphemeris}{{4.3}{15}}
\abx@aux@page{34}{15}
\abx@aux@page{35}{15}
\citation{GiantFlares}
\abx@aux@segm{0}{0}{GiantFlares}
\citation{GiantFlares}
\abx@aux@segm{0}{0}{GiantFlares}
\citation{StarSpots1}
\abx@aux@cite{StarSpots1}
\abx@aux@segm{0}{0}{StarSpots1}
\citation{StarSpots2}
\abx@aux@cite{StarSpots2}
\abx@aux@segm{0}{0}{StarSpots2}
\citation{GiantFlares}
\abx@aux@segm{0}{0}{GiantFlares}
\abx@aux@page{36}{16}
\abx@aux@page{37}{16}
\newlabel{UpdatedEphemeris}{{4}{16}}
\abx@aux@page{38}{16}
\abx@aux@page{39}{16}
\@writefile{toc}{\defcounter {refsection}{0}\relax }\@writefile{toc}{\contentsline {subsection}{\numberline {4.4}Accretion State}{16}}
\newlabel{AccretionState}{{4.4}{16}}
\citation{GiantFlares}
\abx@aux@segm{0}{0}{GiantFlares}
\@writefile{lof}{\defcounter {refsection}{0}\relax }\@writefile{lof}{\contentsline {figure}{\numberline {17}{\ignorespaces The K2 light curve of V358 Aqr folded on the updated ephemeris in Eq.(4\hbox {}). The folded light curve has been repeated in order to show both the maxima and minima clearly, such that after phase 1.0 the flux is plotted against phase+1. There is high variability at maxima but much less variability at minima. Flares occur between phases 0.2-0.8.\relax }}{17}}
\newlabel{Folded}{{17}{17}}
\abx@aux@page{40}{17}
\abx@aux@page{41}{17}
\abx@aux@page{42}{17}
\abx@aux@page{43}{17}
\citation{Kepler}
\abx@aux@segm{0}{0}{Kepler}
\@writefile{lof}{\defcounter {refsection}{0}\relax }\@writefile{lof}{\contentsline {figure}{\numberline {18}{\ignorespaces Observed times of the primary minima of V358 Aqr in the K2 data. Cycle numbers correspond to the ephemeris in Eq.(4\hbox {}). O-C values are the observed minima times minus the predicted minima times from the ephemeris.\relax }}{18}}
\newlabel{MinimaTimes}{{18}{18}}
\abx@aux@page{44}{18}
\@writefile{toc}{\defcounter {refsection}{0}\relax }\@writefile{toc}{\contentsline {section}{\numberline {5}Discussion}{18}}
\@writefile{toc}{\defcounter {refsection}{0}\relax }\@writefile{toc}{\contentsline {subsection}{\numberline {5.1}Double Peaked Maxima}{18}}
\newlabel{DoublePeak}{{5.1}{18}}
\citation{ComplexFields}
\abx@aux@cite{ComplexFields}
\abx@aux@segm{0}{0}{ComplexFields}
\citation{WX1}
\abx@aux@cite{WX1}
\abx@aux@segm{0}{0}{WX1}
\citation{WX2}
\abx@aux@cite{WX2}
\abx@aux@segm{0}{0}{WX2}
\citation{WindAccretion}
\abx@aux@cite{WindAccretion}
\abx@aux@segm{0}{0}{WindAccretion}
\newlabel{TwoSinusoids}{{6}{19}}
\abx@aux@page{45}{19}
\abx@aux@page{46}{19}
\abx@aux@page{47}{19}
\@writefile{lof}{\defcounter {refsection}{0}\relax }\@writefile{lof}{\contentsline {figure}{\numberline {19}{\ignorespaces Peaks in the K2 light curve of V358 Aqr fitted with a sum of two sine curves of the form of Eq.(6\hbox {}). One sine curve has a angular frequency fixed at the binary period and the other has a frequency which is optimised. The second period, P is fitted at approximately the secondary peak seen in the power spectrum at P = 0.0727 days. The two peaks are consistently located around phases 0.3 and 0.65.\relax }}{20}}
\newlabel{DoubleSinFits}{{19}{20}}
\citation{GiantFlares}
\abx@aux@segm{0}{0}{GiantFlares}
\citation{AMHerFlare}
\abx@aux@cite{AMHerFlare}
\abx@aux@segm{0}{0}{AMHerFlare}
\citation{GiantFlares}
\abx@aux@segm{0}{0}{GiantFlares}
\@writefile{lof}{\defcounter {refsection}{0}\relax }\@writefile{lof}{\contentsline {figure}{\numberline {20}{\ignorespaces The frequency power spectrum of V358 Aqr plotted against time. Both the main peak corresponding to the orbital frequency at $\approx 6.9$ cycles/d and the secondary peak at $\approx 13.7$ cycles/d are visible throughout the observing period. \relax }}{21}}
\newlabel{ColourScale}{{20}{21}}
\abx@aux@page{48}{21}
\@writefile{toc}{\defcounter {refsection}{0}\relax }\@writefile{toc}{\contentsline {subsection}{\numberline {5.2}The Flares}{21}}
\newlabel{Flares}{{5.2}{21}}
\abx@aux@page{49}{21}
\abx@aux@page{50}{21}
\abx@aux@page{51}{21}
\citation{GiantFlares}
\abx@aux@segm{0}{0}{GiantFlares}
\citation{AMHerFlare}
\abx@aux@segm{0}{0}{AMHerFlare}
\citation{AMHerFlare2}
\abx@aux@cite{AMHerFlare2}
\abx@aux@segm{0}{0}{AMHerFlare2}
\@writefile{lof}{\defcounter {refsection}{0}\relax }\@writefile{lof}{\contentsline {figure}{\numberline {21}{\ignorespaces Light curves of the two brightest flares in the K2 light curve of V358 Aqr. The flux sharply increases by $\sim $0.5 mag and then decays over $\sim $200s.\relax }}{22}}
\newlabel{LargestFlares}{{21}{22}}
\abx@aux@page{52}{22}
\abx@aux@page{53}{22}
\abx@aux@page{54}{22}
\citation{GiantFlares}
\abx@aux@segm{0}{0}{GiantFlares}
\citation{MiniFlares}
\abx@aux@cite{MiniFlares}
\abx@aux@segm{0}{0}{MiniFlares}
\citation{GiantFlares}
\abx@aux@segm{0}{0}{GiantFlares}
\abx@aux@page{55}{23}
\abx@aux@page{56}{23}
\@writefile{toc}{\defcounter {refsection}{0}\relax }\@writefile{toc}{\contentsline {section}{\numberline {6}Conclusions}{24}}
\abx@aux@page{57}{24}
\abx@aux@page{58}{24}
\abx@aux@page{59}{24}
\abx@aux@refcontextdefaultsdone
\abx@aux@defaultrefcontext{0}{ROSAT}{nyt/global//global/global}
\abx@aux@defaultrefcontext{0}{ComplexFields}{nyt/global//global/global}
\abx@aux@defaultrefcontext{0}{GiantFlares}{nyt/global//global/global}
\abx@aux@defaultrefcontext{0}{MiniFlares}{nyt/global//global/global}
\abx@aux@defaultrefcontext{0}{TDB}{nyt/global//global/global}
\abx@aux@defaultrefcontext{0}{MCVs2}{nyt/global//global/global}
\abx@aux@defaultrefcontext{0}{arc}{nyt/global//global/global}
\abx@aux@defaultrefcontext{0}{CyclotronBeaming}{nyt/global//global/global}
\abx@aux@defaultrefcontext{0}{book}{nyt/global//global/global}
\abx@aux@defaultrefcontext{0}{WindAccretion}{nyt/global//global/global}
\abx@aux@defaultrefcontext{0}{StarSpots2}{nyt/global//global/global}
\abx@aux@defaultrefcontext{0}{StarSpots1}{nyt/global//global/global}
\abx@aux@defaultrefcontext{0}{MCVs1}{nyt/global//global/global}
\abx@aux@defaultrefcontext{0}{OpticalPolarimetry}{nyt/global//global/global}
\abx@aux@defaultrefcontext{0}{AMHerFlare2}{nyt/global//global/global}
\abx@aux@defaultrefcontext{0}{PolarDiagram}{nyt/global//global/global}
\abx@aux@defaultrefcontext{0}{WX1}{nyt/global//global/global}
\abx@aux@defaultrefcontext{0}{AMHerFlare}{nyt/global//global/global}
\abx@aux@defaultrefcontext{0}{Kepler}{nyt/global//global/global}
\abx@aux@defaultrefcontext{0}{PolarPeriod}{nyt/global//global/global}
\abx@aux@defaultrefcontext{0}{WX2}{nyt/global//global/global}
\abx@aux@page{60}{25}
\abx@aux@page{61}{25}
\abx@aux@page{62}{25}
\abx@aux@page{63}{25}
\abx@aux@page{64}{25}
\abx@aux@page{65}{25}
\abx@aux@page{66}{25}
\abx@aux@page{67}{25}
\abx@aux@page{68}{25}
\abx@aux@page{69}{25}
\abx@aux@page{70}{25}
\abx@aux@page{71}{25}
\abx@aux@page{72}{25}
\abx@aux@page{73}{25}
\abx@aux@page{74}{25}
\abx@aux@page{75}{25}
\abx@aux@page{76}{25}
\abx@aux@page{77}{25}
\abx@aux@page{78}{25}
